{
  "comp": {
    "comp_1_5":   650,
    "comp_6_10":  600,
    "comp_11_15": 550,
    "comp_16_24": 500,
    "comp_25_40": 450
  },
  "org": 500,
  "soho": 1000,
  "winServer": 1700,
  "miniATS": 600,
  "localNetwork": 700
}